<svg id="Group_36" data-name="Group 36" xmlns="http://www.w3.org/2000/svg" width="99.199" height="21.619" viewBox="0 0 99.199 21.619">
  <g id="Group_661" data-name="Group 661">
    <path id="Path_6200" data-name="Path 6200" d="M18.453,3.166A10.809,10.809,0,0,0,3.166,18.453,10.809,10.809,0,1,0,18.453,3.166ZM15.974,8.237,9.933,14.278a.633.633,0,0,1-.9,0L5.645,10.886a.633.633,0,0,1,.9-.9l2.944,2.944,5.593-5.593a.633.633,0,1,1,.9.9Z" fill="#10c486"/>
  </g>
  <text id="APPROVED" transform="translate(28.199 14.94)" fill="#10c486" font-size="13" font-family="OpenSans-Bold, Open Sans" font-weight="700" letter-spacing="0.015em"><tspan x="0" y="0">APPROVED</tspan></text>
</svg>
