<svg id="close_ico" data-name="close ico" xmlns="http://www.w3.org/2000/svg" width="24.68" height="24.679" viewBox="0 0 24.68 24.679">
  <path id="Path_6331" data-name="Path 6331" d="M12.34,0a12.34,12.34,0,1,0,12.34,12.34A12.34,12.34,0,0,0,12.34,0Zm0,23.522A11.183,11.183,0,1,1,23.522,12.34,11.183,11.183,0,0,1,12.34,23.522Z" fill="#aaa"/>
  <path id="Path_6332" data-name="Path 6332" d="M46.013,35.047a.578.578,0,0,0-.817,0l-4.6,4.62-4.6-4.627a.579.579,0,0,0-.819.819l4.6,4.627-4.6,4.627a.579.579,0,1,0,.819.817l4.6-4.625,4.6,4.627a.579.579,0,0,0,.819-.819l-4.606-4.627,4.606-4.627A.578.578,0,0,0,46.013,35.047Z" transform="translate(-28.252 -28.147)" fill="#aaa"/>
</svg>
