<svg id="multiple-documents-files" xmlns="http://www.w3.org/2000/svg" width="48.584" height="55.525" viewBox="0 0 48.584 55.525">
  <g id="Icon-Set-Filled">
    <path id="multiple-documents-files-2" data-name="multiple-documents-files" d="M247.908,114.881a3.594,3.594,0,0,1-3.47-3.47v-6.89l8.676,10.361Zm-3.47,13.909H228.822a1.733,1.733,0,1,1,0-3.467h15.616a1.733,1.733,0,1,1,0,3.467Zm0,8.667H228.822a1.733,1.733,0,1,1,0-3.467h15.616a1.733,1.733,0,1,1,0,3.467Zm-3.47,15.6H214.941a3.639,3.639,0,0,1-3.47-3.47v-34.7c0-2.58,2.124-3.47,5.205-3.47v31.233a7.23,7.23,0,0,0,6.941,6.941s18.812-.019,20.837-.019a3.282,3.282,0,0,1-3.486,3.489Zm3.47-52L223.616,101a7.23,7.23,0,0,0-6.941,6.941l-2,.047A6.949,6.949,0,0,0,208,114.881v34.7a7.23,7.23,0,0,0,6.941,6.941h26.027a7.23,7.23,0,0,0,6.941-6.941h1.735a7.23,7.23,0,0,0,6.941-6.941V114.921l-12.146-13.867Z" transform="translate(-208 -101)" fill="#cbcbcb" fill-rule="evenodd"/>
  </g>
</svg>
